// Jest Snapshot v1, https://goo.gl/fbAQLP

exports[`should match snapshot 1`] = `"In \\"Metal Gear Solid 2\\", you will see through the eyes of Psycho Mantis if you go first person during his boss fight."`;
