// Jest Snapshot v1, https://goo.gl/fbAQLP

exports[`Result should match snapshot 1`] = `
<View
  style={
    Object {
      "margin": 10,
    }
  }
>
  <View
    style={
      Object {
        "alignItems": "center",
        "flexDirection": "row",
      }
    }
  >
    <View>
      <Text
        accessible={true}
        allowFontScaling={true}
        ellipsizeMode="tail"
        style={
          Array [
            Object {
              "fontSize": 28,
              "textAlign": "center",
            },
            Object {
              "color": "blue",
            },
          ]
        }
      >
        +
      </Text>
    </View>
    <View
      style={
        Object {
          "margin": 5,
        }
      }
    >
      <Text
        accessible={true}
        allowFontScaling={true}
        ellipsizeMode="tail"
        style={
          Array [
            Object {
              "fontSize": 21,
              "textAlign": "center",
            },
            Object {
              "color": "blue",
              "textAlign": "left",
            },
          ]
        }
      >
        In "Metal Gear Solid 2", you will see through the eyes of Psycho Mantis if you go first person during his boss fight.
      </Text>
    </View>
  </View>
  <Text
    accessible={true}
    allowFontScaling={true}
    ellipsizeMode="tail"
    style={
      Array [
        Object {
          "fontSize": 16,
          "textAlign": "center",
        },
        Object {
          "fontStyle": "italic",
        },
      ]
    }
  >
    You said 
    True
  </Text>
</View>
`;

exports[`ResultsScreen should match snapshot 1`] = `
<RCTScrollView>
  <View>
    <View
      style={
        Object {
          "alignItems": "center",
          "flex": 1,
          "justifyContent": "space-between",
          "marginBottom": 50,
          "marginLeft": 25,
          "marginRight": 25,
          "marginTop": 50,
        }
      }
    >
      <Text
        accessible={true}
        allowFontScaling={true}
        ellipsizeMode="tail"
        style={
          Array [
            Object {
              "fontSize": 28,
              "textAlign": "center",
            },
            undefined,
          ]
        }
      >
        You got 
        1
         / 
        1
         correct
      </Text>
      <View
        style={
          Object {
            "margin": 10,
          }
        }
      >
        <View
          style={
            Object {
              "alignItems": "center",
              "flexDirection": "row",
            }
          }
        >
          <View>
            <Text
              accessible={true}
              allowFontScaling={true}
              ellipsizeMode="tail"
              style={
                Array [
                  Object {
                    "fontSize": 28,
                    "textAlign": "center",
                  },
                  Object {
                    "color": "blue",
                  },
                ]
              }
            >
              +
            </Text>
          </View>
          <View
            style={
              Object {
                "margin": 5,
              }
            }
          >
            <Text
              accessible={true}
              allowFontScaling={true}
              ellipsizeMode="tail"
              style={
                Array [
                  Object {
                    "fontSize": 21,
                    "textAlign": "center",
                  },
                  Object {
                    "color": "blue",
                    "textAlign": "left",
                  },
                ]
              }
            >
              In "Metal Gear Solid 2", you will see through the eyes of Psycho Mantis if you go first person during his boss fight.
            </Text>
          </View>
        </View>
        <Text
          accessible={true}
          allowFontScaling={true}
          ellipsizeMode="tail"
          style={
            Array [
              Object {
                "fontSize": 16,
                "textAlign": "center",
              },
              Object {
                "fontStyle": "italic",
              },
            ]
          }
        >
          You said 
          True
        </Text>
      </View>
      <View
        style={
          Object {
            "flexDirection": "row",
          }
        }
      >
        <View
          style={
            Object {
              "flex": 1,
            }
          }
        >
          <View
            accessibilityComponentType="button"
            accessibilityLabel={undefined}
            accessibilityTraits={
              Array [
                "button",
              ]
            }
            accessible={true}
            collapsable={undefined}
            hasTVPreferredFocus={undefined}
            hitSlop={undefined}
            isTVSelectable={true}
            nativeID={undefined}
            onLayout={undefined}
            onResponderGrant={[Function]}
            onResponderMove={[Function]}
            onResponderRelease={[Function]}
            onResponderTerminate={[Function]}
            onResponderTerminationRequest={[Function]}
            onStartShouldSetResponder={[Function]}
            style={
              Object {
                "opacity": 1,
              }
            }
            testID={undefined}
            tvParallaxProperties={undefined}
          >
            <View
              style={
                Array [
                  Object {},
                ]
              }
            >
              <Text
                accessible={true}
                allowFontScaling={true}
                disabled={undefined}
                ellipsizeMode="tail"
                style={
                  Array [
                    Object {
                      "color": "#007AFF",
                      "fontSize": 18,
                      "padding": 8,
                      "textAlign": "center",
                    },
                  ]
                }
              >
                Play Again?
              </Text>
            </View>
          </View>
        </View>
      </View>
    </View>
  </View>
</RCTScrollView>
`;
